# Object Export From Tinkercad Server 2015

mtllib obj.mtl

o obj_0
v 28 		22 		0
v 28.0037 		21.997 		0
v 28.0037 		18.5 		0
v 28 		18.5 		0
v 28.0037 		-2 		0
v 28.0037 		-5.497 		0
v 28 		-5.5 		0
v 28 		-2 		0
v 29.002 		-0.752 		5
v 29.002 		17.253 		5
v 32.25 		-2 		5
v 32.25 		18.5 		5
v -21.86 		-23.25 		7.529
v -21.514 		-23.25 		7.864
v 28 		22 		5
v 28 		-5.5 		5
v -22.159 		-23.25 		7.153
v 32.25 		-2 		1.5017
v 32.25 		-2 		1.5
v -22.409 		-23.25 		6.741
v 32.25 		18.5 		1.5
v 32.25 		18.5 		1.5011
v -22.603 		-23.25 		6.301
v -12.627 		-22.25 		1.37
v -13.099 		-22.25 		1.278
v -22.74 		-23.25 		5.84
v 29.7 		-2 		0.6
v 30.1982 		18.5 		0.7758
v 19.418 		-11.47 		1.748
v 19.667 		-11.958 		1.748
v 29.002 		-0.752 		1.498
v -10.251 		-22.253 		6.741
v -22.817 		-23.25 		5.365
v 8.12 		-15.523 		0
v -20.49 		-20.749 		1.522
v 19.03 		-11.082 		1.748
v -20.49 		-22.25 		1.522
v 29.002 		17.253 		1.498
v -20.033 		-22.25 		1.37
v -20.033 		-20.749 		1.37
v -10.501 		-22.253 		7.153
v -22.832 		-23.25 		4.883
v -19.561 		-22.25 		1.278
v 10.5 		-12.247 		0
v -19.561 		-20.749 		1.278
v 9.727 		-12.37 		0
v 11.031 		-23.25 		4.848
v 10.8278 		-23.25 		5
v 18.542 		-10.833 		1.748
v -22.786 		-23.25 		4.404
v -10.8 		-22.253 		7.529
v -19.081 		-20.749 		1.248
v 11.45 		-23.25 		4.612
v -19.081 		-22.25 		1.248
v 18 		-10.747 		1.748
v 9.029 		-12.725 		0
v -12.17 		-22.25 		1.522
v 28.5864 		18.5 		0.2061
v 8.475 		-13.279 		0
v -11.146 		-22.253 		7.864
v -11.737 		-22.25 		1.731
v -11.3278 		-22.253 		8
v 28.1153 		21.905 		0.0395
v -19.081 		-20.749 		1.748
v 11.896 		-23.25 		4.431
v 19.753 		-12.5 		1.748
v 8.475 		-16.221 		0
v -9.981 		-22.253 		3.935
v 18 		-14.253 		1.748
v -21.3322 		-22.253 		8
v -21.514 		-22.253 		7.864
v 25.503 		-20.753 		1.748
v 12.361 		-23.25 		4.309
v 31.4226 		-2 		1.2093
v -21.86 		-22.253 		7.529
v 9.029 		-16.775 		1.748
v 12.838 		-23.25 		4.248
v 31.5072 		-2.6117 		1.2392
v -9.874 		-22.253 		4.404
v -22.159 		-22.253 		7.153
v 19.299 		-23.25 		4.309
v 18.822 		-23.25 		4.248
v 9.727 		-17.13 		1.748
v -9.828 		-22.253 		4.883
v -22.409 		-22.253 		6.741
v 12.525 		-16.221 		0
v 19.764 		-23.25 		4.431
v 10.5 		-17.253 		1.748
v 12.88 		-15.523 		0
v -9.843 		-22.253 		5.365
v 20.21 		-23.25 		4.612
v 11.273 		-17.13 		1.748
v -20.9491 		-20.752 		1.748
v 28 		-23.25 		5
v -9.92 		-22.253 		5.84
v 20.629 		-23.25 		4.848
v 13.003 		-14.75 		0
v 28 		-23.25 		0
v 11.971 		-16.775 		1.748
v -10.057 		-22.253 		6.301
v -28.5 		22 		8
v -32.75 		18.5 		8
v 12.88 		-13.977 		0
v 20.8322 		-23.25 		5
v -28.5 		22 		4.9207
v -30.2352 		20.571 		3.2663
v -32.75 		18.5 		7.9992
v -20.9491 		-20.749 		1.748
v 12.525 		-13.279 		0
v 8.12 		-13.977 		1.748
v -28.9611 		18.5 		0.8686
v -30.625 		18.5 		4
v 11.971 		-12.725 		0
v 7.998 		-14.75 		1.748
v -10.251 		-23.25 		6.741
v 11.273 		-12.37 		0
v 8.12 		-15.523 		1.748
v -20.923 		-22.25 		1.731
v -10.501 		-23.25 		7.153
v -20.923 		-20.749 		1.731
v -28.9615 		18.5 		0.8686
v -13.579 		-22.253 		1.248
v -10.8 		-23.25 		7.529
v 10.5 		-8.503 		0
v -13.099 		-22.253 		1.278
v -32.75 		-2 		8
v -28.5 		-5.5 		8
v -11.146 		-23.25 		7.864
v -12.627 		-22.253 		1.37
v -32.75 		-2 		7.9992
v 9.727 		-12.37 		1.748
v -28.5 		-5.5 		0.0008
v 10.5 		-12.247 		1.748
v -11.3278 		-23.25 		8
v -28.5 		-2 		0.0008
v -30.625 		-2 		4
v 9.029 		-12.725 		1.748
v -21.3322 		-23.25 		8
v -12.17 		-22.253 		1.522
v 8.475 		-13.279 		1.748
v -28.5 		-2 		0
v -11.737 		-22.253 		1.731
v 16.247 		-12.5 		0
v -29.753 		-0.75 		8
v -26.252 		19.252 		6.001
v -26.252 		14.75 		6.001
v 10.5 		-17.253 		0
v -11.334 		-22.253 		1.993
v -29.753 		17.252 		8
v 8.475 		-16.221 		1.748
v -10.968 		-22.253 		2.305
v -26.252 		14.75 		1.748
v 7.998 		-6 		0
v -10.644 		-22.253 		2.662
v 7.998 		-14.75 		0
v -22.679 		-20.752 		3.935
v -28.5 		17.7497 		0
v -10.369 		-22.253 		3.057
v 3 		-23.25 		0
v -6.248 		19.252 		6.5
v 12.525 		-16.221 		1.748
v -4.5 		21 		6.5
v 3 		22 		0
v -10.147 		-22.253 		3.483
v -29.753 		-0.75 		7.999
v 12.88 		-15.523 		1.748
v -29.753 		17.252 		7.999
v 13.003 		-14.75 		1.748
v 27.25 		-22.25 		6.5
v 27.25 		-22.25 		5
v 27.25 		-0.752 		5
v 27.25 		-0.752 		6.5
v -13.579 		-22.25 		1.248
v -10.1447 		-20.752 		6.5
v 27.25 		17.253 		6.5
v 27.25 		17.253 		5
v -10.1447 		-22.25 		6.5
v 27.25 		21 		5
v 27.25 		21 		6.5
v 12.88 		-13.977 		1.748
v 4 		21 		6.5
v 4 		21 		5
v 12.525 		-13.279 		1.748
v 4 		-22.25 		5
v -28.5 		-23.25 		8
v 4 		-22.25 		6.5
v -4.5 		-22.25 		0
v -28.5 		-23.25 		0
v 11.971 		-12.725 		1.748
v 9.6447 		-22.25 		6.5
v 9.6447 		-20.753 		6.5
v -19.081 		-22.253 		1.248
v 11.273 		-12.37 		1.748
v -20.49 		-22.253 		1.522
v -27.752 		-22.253 		8
v -6.248 		-20.752 		6.5
v -27.752 		21.002 		8
v -20.033 		-22.253 		1.37
v -27.752 		-0.75 		8
v -4.5 		-22.25 		6.5
v 22.0153 		-20.753 		6.5
v 10.5 		-8.503 		1.748
v 22.0153 		-22.25 		6.5
v -19.561 		-22.253 		1.278
v -27.752 		17.252 		8
v 16.247 		-12.5 		1.748
v -27.752 		-22.253 		0
v -22.5153 		-22.25 		6.5
v -27.752 		17.7497 		0
v -22.5153 		-20.752 		6.5
v -20.923 		-22.253 		1.731
v 25.503 		-20.753 		6.5
v 6.498 		-0.752 		1.748
v 5.498 		-20.753 		6.5
v 3 		-23.25 		5
v 7.998 		-6 		1.748
v 5.498 		19.253 		6.5
v 25.503 		19.253 		6.5
v 6.498 		17.253 		1.748
v 5.498 		-20.753 		1.748
v -26.252 		-20.752 		6.5
v -22.679 		-22.253 		3.935
v 5.498 		19.253 		1.748
v 25.503 		-0.752 		6.5
v 11.031 		-20.753 		4.848
v -26.252 		19.252 		6.5
v 9.727 		-8.38 		1.748
v 25.503 		17.253 		6.5
v 9.727 		-8.38 		0
v -22.513 		-22.253 		3.483
v 11.45 		-20.753 		4.612
v -27.75 		21 		6.5
v -27.752 		21.002 		3.7652
v -22.291 		-22.253 		3.057
v -27.75 		-22.25 		6.5
v -22.679 		-22.25 		3.935
v 11.896 		-20.753 		4.431
v 11.273 		-8.38 		1.748
v 11.273 		-8.38 		0
v -22.016 		-22.253 		2.662
v -22.513 		-22.25 		3.483
v -27.752 		-0.75 		7.999
v 9.751 		-22.25 		6.259
v -27.752 		17.252 		7.999
v -22.291 		-22.25 		3.057
v -21.692 		-22.253 		2.305
v 10.001 		-22.25 		5.847
v 8.12 		-5.227 		1.748
v 8.12 		-5.227 		0
v 12.361 		-20.753 		4.309
v -22.016 		-22.25 		2.662
v -21.326 		-22.253 		1.993
v 10.3 		-22.25 		5.471
v 12.838 		-20.753 		4.248
v -21.692 		-22.25 		2.305
v 18.822 		-20.753 		4.248
v 10.646 		-22.25 		5.136
v 19.299 		-20.753 		4.309
v 8.12 		-6.773 		1.748
v 8.12 		-6.773 		0
v -21.326 		-22.25 		1.993
v 19.764 		-20.753 		4.431
v 10.8278 		-22.25 		5
v 20.21 		-20.753 		4.612
v 9.727 		-3.62 		1.748
v 9.727 		-3.62 		0
v -22.603 		-22.253 		6.301
v 10.5 		-3.498 		0
v -27.75 		-22.25 		0
v -27.75 		21 		3.7629
v -27.75 		17.7497 		0
v -4.5 		17.7497 		0
v -3.5 		-23.25 		8
v 10.5 		-3.498 		1.748
v -3.5 		-23.25 		0
v -3.5 		17.7497 		0
v -3.5 		22 		4.9207
v -22.74 		-22.253 		5.84
v -3.5 		22 		8
v 9.029 		-3.975 		1.748
v -4.498 		-22.253 		8
v 9.029 		-3.975 		0
v 21.014 		-22.25 		5.136
v -22.817 		-22.253 		5.365
v 20.8322 		-22.25 		5
v 20.629 		-20.753 		4.848
v -4.498 		21.002 		8
v 8.475 		-4.529 		1.748
v 21.36 		-22.25 		5.471
v 8.475 		-4.529 		0
v -22.832 		-22.253 		4.883
v -22.603 		-22.25 		6.301
v -22.786 		-22.253 		4.404
v -22.74 		-22.25 		5.84
v 21.659 		-22.25 		5.847
v -4.498 		-22.253 		0
v -22.817 		-22.25 		5.365
v -4.498 		17.7497 		0
v 21.909 		-22.25 		6.259
v 8.475 		-7.471 		1.748
v 8.475 		-7.471 		0
v -22.832 		-22.25 		4.883
v -22.786 		-22.25 		4.404
v 9.029 		-8.025 		1.748
v 9.029 		-8.025 		0
v -22.513 		-20.752 		3.483
v -9.981 		-23.25 		3.935
v -22.291 		-20.752 		3.057
v 11.971 		-8.025 		1.748
v 11.971 		-8.025 		0
v -22.016 		-20.752 		2.662
v -9.874 		-23.25 		4.404
v -21.692 		-20.752 		2.305
v -9.828 		-23.25 		4.883
v -4.498 		21.002 		3.7652
v 11.971 		-3.975 		1.748
v -21.326 		-20.752 		1.993
v 11.971 		-3.975 		0
v -9.843 		-23.25 		5.365
v -9.92 		-23.25 		5.84
v 11.273 		-3.62 		1.748
v 11.273 		-3.62 		0
v -10.057 		-23.25 		6.301
v -4.5 		21 		3.7629
v -6.248 		19.252 		6.001
v -6.248 		14.75 		6.001
v 9.751 		-20.753 		6.259
v -6.248 		14.75 		1.748
v 12.525 		-7.471 		1.748
v 12.525 		-7.471 		0
v 10.001 		-20.753 		5.847
v -22.603 		-20.752 		6.301
v -13.579 		-23.25 		1.248
v 12.88 		-6.773 		1.748
v 12.88 		-6.773 		0
v -13.099 		-23.25 		1.278
v 10.3 		-20.753 		5.471
v 13.003 		-6 		0
v -12.627 		-23.25 		1.37
v 13.003 		-6 		1.748
v 10.646 		-20.753 		5.136
v -22.74 		-20.752 		5.84
v 12.88 		-5.227 		1.748
v 12.88 		-5.227 		0
v -22.817 		-20.752 		5.365
v -12.17 		-23.25 		1.522
v 12.525 		-4.529 		1.748
v 12.525 		-4.529 		0
v -11.737 		-23.25 		1.731
v -22.832 		-20.752 		4.883
v -11.334 		-23.25 		1.993
v -22.786 		-20.752 		4.404
v -10.968 		-23.25 		2.305
v 21.014 		-20.753 		5.136
v -10.644 		-23.25 		2.662
v 21.36 		-20.753 		5.471
v 25.503 		-0.752 		1.748
v -10.369 		-23.25 		3.057
v 21.659 		-20.753 		5.847
v 25.503 		17.253 		1.748
v -9.981 		-20.752 		3.935
v -10.147 		-23.25 		3.483
v 21.909 		-20.753 		6.259
v -26.252 		-20.752 		1.748
v -9.874 		-20.752 		4.404
v -9.828 		-20.752 		4.883
v -19.081 		-23.25 		1.248
v 16.333 		-13.042 		1.748
v 16.333 		-13.042 		0
v -9.843 		-20.752 		5.365
v -20.49 		-23.25 		1.522
v 16.582 		-13.53 		1.748
v 16.582 		-13.53 		0
v -9.92 		-20.752 		5.84
v -10.057 		-20.752 		6.301
v 16.97 		-13.918 		1.748
v 16.97 		-13.918 		0
v -20.033 		-23.25 		1.37
v -19.561 		-23.25 		1.278
v 17.458 		-14.167 		1.748
v 17.458 		-14.167 		0
v 18 		-14.253 		0
v -20.923 		-23.25 		1.731
v 18.542 		-14.167 		1.748
v 18.542 		-14.167 		0
v 19.03 		-13.918 		1.748
v 19.03 		-13.918 		0
v -22.679 		-23.25 		3.935
v -9.981 		-22.25 		3.935
v -22.513 		-23.25 		3.483
v 19.418 		-13.53 		1.748
v 19.418 		-13.53 		0
v -22.291 		-23.25 		3.057
v -22.016 		-23.25 		2.662
v -9.874 		-22.25 		4.404
v 19.667 		-13.042 		1.748
v 19.667 		-13.042 		0
v -21.692 		-23.25 		2.305
v -21.326 		-23.25 		1.993
v -9.828 		-22.25 		4.883
v 19.753 		-12.5 		0
v -9.843 		-22.25 		5.365
v -9.92 		-22.25 		5.84
v 17.458 		-10.833 		1.748
v 17.458 		-10.833 		0
v 18 		-10.747 		0
v -10.057 		-22.25 		6.301
v 16.97 		-11.082 		1.748
v 16.97 		-11.082 		0
v 16.582 		-11.47 		1.748
v 16.582 		-11.47 		0
v 16.333 		-11.958 		1.748
v 16.333 		-11.958 		0
v -11.7109 		-20.752 		1.748
v -11.334 		-20.752 		1.993
v -10.968 		-20.752 		2.305
v 19.667 		-11.958 		0
v 3 		22 		5
v -10.644 		-20.752 		2.662
v 19.418 		-11.47 		0
v -10.369 		-20.752 		3.057
v -11.334 		-22.25 		1.993
v 19.03 		-11.082 		0
v -10.968 		-22.25 		2.305
v -10.147 		-20.752 		3.483
v -10.644 		-22.25 		2.662
v 18.542 		-10.833 		0
v -10.369 		-22.25 		3.057
v -10.147 		-22.25 		3.483
v -6.248 		-20.752 		1.748
v 9.029 		-16.775 		0
v 9.727 		-17.13 		0
v 11.273 		-17.13 		0
v 11.971 		-16.775 		0
v 8.12 		-13.977 		0
v -13.579 		-20.748 		1.748
v -11.7109 		-20.749 		1.748
v -13.579 		-20.749 		1.748
v -13.579 		-20.748 		1.248
v -13.579 		-20.749 		1.248
v -13.099 		-20.749 		1.278
v -12.627 		-20.749 		1.37
v -12.17 		-20.749 		1.522
v -11.737 		-20.749 		1.731
v 6.498 		-0.752 		1.498
v 6.498 		17.253 		1.498
v 25.503 		19.253 		1.748
v -19.081 		-20.748 		1.748
v -19.081 		-20.748 		1.248
# 449 vertices

g group_0_15277357

usemtl color_15277357
s 0

f 3 	4 	2
f 1 	2 	4
f 7 	8 	6
f 5 	6 	8
f 10 	9 	12
f 11 	12 	9
f 15 	178 	12
f 11 	9 	16
f 13 	14 	185
f 17 	13 	185
f 21 	22 	19
f 18 	19 	22
f 22 	12 	18
f 11 	18 	12
f 20 	17 	185
f 31 	9 	10
f 23 	20 	185
f 8 	4 	27
f 4 	28 	27
f 19 	27 	28
f 19 	28 	21
f 23 	185 	26
f 35 	37 	40
f 39 	40 	37
f 30 	357 	29
f 33 	26 	185
f 43 	45 	40
f 43 	40 	39
f 10 	38 	31
f 51 	281 	41
f 52 	45 	43
f 52 	43 	54
f 25 	187 	24
f 36 	357 	49
f 55 	49 	357
f 22 	21 	28
f 185 	188 	42
f 59 	301 	56
f 60 	281 	51
f 35 	40 	64
f 120 	35 	64
f 28 	4 	58
f 3 	58 	4
f 281 	60 	62
f 45 	64 	40
f 52 	64 	45
f 1 	15 	2
f 63 	2 	15
f 22 	63 	15
f 22 	15 	12
f 29 	357 	36
f 396 	72 	66
f 30 	66 	357
f 188 	394 	393
f 42 	33 	185
f 393 	390 	188
f 22 	28 	63
f 58 	63 	28
f 41 	281 	32
f 3 	2 	63
f 3 	63 	58
f 53 	159 	65
f 47 	159 	53
f 384 	69 	72
f 357 	66 	72
f 19 	18 	74
f 19 	74 	27
f 68 	296 	164
f 75 	195 	71
f 27 	5 	8
f 80 	195 	75
f 70 	71 	195
f 16 	7 	6
f 16 	6 	78
f 18 	11 	78
f 16 	78 	11
f 84 	296 	79
f 85 	195 	80
f 78 	74 	18
f 82 	98 	81
f 83 	76 	220
f 6 	5 	27
f 74 	78 	27
f 6 	27 	78
f 87 	81 	98
f 91 	87 	98
f 7 	16 	98
f 94 	98 	16
f 103 	109 	143
f 96 	91 	98
f 92 	220 	72
f 32 	281 	100
f 106 	107 	105
f 101 	105 	107
f 101 	107 	102
f 106 	111 	112
f 106 	112 	107
f 300 	259 	110
f 105 	233 	106
f 64 	448 	108
f 115 	32 	323
f 102 	107 	112
f 68 	79 	296
f 90 	281 	84
f 95 	281 	90
f 100 	281 	95
f 44 	46 	229
f 119 	41 	32
f 119 	32 	115
f 108 	93 	120
f 118 	120 	93
f 118 	93 	261
f 111 	121 	112
f 123 	51 	41
f 123 	41 	119
f 150 	117 	220
f 114 	220 	117
f 24 	187 	57
f 129 	296 	125
f 128 	60 	51
f 128 	51 	123
f 132 	127 	130
f 126 	130 	127
f 116 	44 	124
f 229 	124 	44
f 46 	56 	305
f 301 	305 	56
f 60 	128 	134
f 60 	134 	62
f 130 	136 	132
f 135 	132 	136
f 108 	120 	64
f 193 	238 	133
f 14 	71 	70
f 14 	70 	138
f 136 	130 	126
f 13 	75 	71
f 13 	71 	14
f 135 	136 	141
f 413 	143 	109
f 109 	113 	413
f 143 	369 	103
f 369 	373 	97
f 373 	377 	97
f 89 	97 	377
f 377 	381 	89
f 382 	98 	381
f 110 	140 	300
f 140 	137 	300
f 17 	80 	75
f 17 	75 	13
f 148 	296 	142
f 20 	85 	80
f 20 	80 	17
f 424 	422 	187
f 151 	296 	148
f 127 	144 	126
f 102 	126 	144
f 102 	144 	149
f 154 	296 	151
f 150 	220 	76
f 141 	136 	157
f 153 	260 	159
f 159 	260 	435
f 155 	34 	159
f 163 	153 	159
f 158 	296 	154
f 104 	96 	98
f 121 	157 	136
f 126 	102 	136
f 102 	112 	136
f 121 	136 	112
f 99 	92 	72
f 164 	296 	158
f 196 	200 	160
f 244 	149 	167
f 244 	167 	165
f 169 	170 	171
f 169 	171 	172
f 161 	72 	166
f 61 	57 	187
f 121 	111 	157
f 175 	176 	178
f 175 	178 	179
f 144 	165 	167
f 144 	167 	149
f 181 	182 	184
f 181 	184 	186
f 132 	185 	127
f 380 	376 	166
f 200 	196 	177
f 122 	125 	296
f 139 	142 	296
f 129 	139 	296
f 188 	185 	132
f 296 	207 	122
f 192 	122 	207
f 141 	188 	132
f 141 	132 	135
f 174 	177 	196
f 186 	190 	214
f 191 	214 	190
f 269 	39 	37
f 162 	160 	200
f 144 	127 	199
f 195 	199 	127
f 127 	185 	195
f 131 	304 	137
f 131 	133 	202
f 202 	227 	131
f 227 	304 	131
f 77 	98 	82
f 73 	159 	77
f 65 	159 	73
f 149 	205 	197
f 101 	102 	197
f 102 	149 	197
f 226 	160 	232
f 192 	207 	204
f 194 	198 	207
f 183 	412 	189
f 168 	368 	180
f 72 	380 	166
f 161 	99 	72
f 183 	180 	206
f 368 	168 	372
f 206 	412 	183
f 410 	309 	412
f 48 	159 	47
f 212 	201 	203
f 198 	204 	207
f 39 	269 	43
f 188 	141 	207
f 207 	141 	209
f 157 	209 	141
f 88 	220 	92
f 83 	220 	88
f 169 	212 	203
f 54 	43 	269
f 98 	77 	159
f 221 	208 	210
f 159 	48 	215
f 207 	211 	194
f 114 	110 	220
f 220 	110 	259
f 213 	220 	216
f 213 	216 	248
f 217 	218 	181
f 104 	98 	94
f 186 	214 	217
f 186 	217 	181
f 208 	221 	235
f 219 	223 	213
f 220 	213 	223
f 172 	224 	212
f 172 	212 	169
f 118 	269 	37
f 162 	232 	160
f 179 	181 	218
f 228 	175 	218
f 179 	218 	175
f 227 	229 	304
f 231 	220 	225
f 124 	229 	227
f 124 	227 	202
f 232 	235 	226
f 221 	226 	235
f 181 	179 	182
f 237 	220 	231
f 238 	239 	124
f 238 	124 	202
f 277 	315 	105
f 178 	182 	179
f 199 	195 	242
f 207 	242 	195
f 233 	197 	244
f 205 	244 	197
f 207 	296 	188
f 275 	188 	296
f 249 	288 	248
f 209 	233 	244
f 209 	244 	242
f 209 	242 	207
f 246 	252 	207
f 249 	248 	216
f 249 	216 	153
f 243 	190 	184
f 186 	184 	190
f 254 	220 	250
f 237 	250 	220
f 242 	165 	144
f 242 	144 	199
f 207 	252 	211
f 245 	269 	251
f 149 	244 	205
f 247 	243 	184
f 153 	216 	260
f 259 	260 	216
f 244 	165 	242
f 255 	251 	269
f 300 	260 	259
f 209 	157 	111
f 111 	106 	233
f 209 	111 	233
f 263 	257 	184
f 267 	195 	85
f 232 	270 	235
f 270 	271 	235
f 269 	235 	271
f 265 	266 	268
f 265 	268 	274
f 261 	255 	269
f 273 	275 	276
f 273 	276 	277
f 273 	277 	279
f 278 	195 	267
f 264 	72 	262
f 280 	282 	266
f 280 	266 	265
f 284 	195 	278
f 288 	290 	282
f 288 	282 	280
f 291 	195 	284
f 285 	170 	283
f 281 	273 	287
f 279 	287 	273
f 271 	187 	269
f 291 	293 	207
f 288 	249 	290
f 289 	283 	170
f 207 	293 	222
f 208 	235 	292
f 298 	276 	296
f 275 	296 	276
f 295 	289 	170
f 260 	300 	301
f 297 	294 	235
f 294 	292 	235
f 187 	271 	272
f 301 	300 	304
f 301 	304 	305
f 207 	195 	291
f 230 	207 	222
f 234 	207 	230
f 234 	240 	207
f 240 	246 	207
f 299 	295 	170
f 304 	229 	305
f 169 	203 	170
f 302 	235 	303
f 68 	307 	79
f 312 	79 	307
f 239 	238 	310
f 309 	310 	238
f 311 	364 	308
f 296 	84 	281
f 299 	170 	203
f 245 	241 	269
f 241 	236 	269
f 236 	303 	269
f 235 	269 	303
f 302 	297 	235
f 197 	315 	287
f 314 	84 	79
f 314 	79 	312
f 313 	364 	311
f 316 	318 	347
f 319 	90 	84
f 319 	84 	314
f 287 	315 	281
f 315 	298 	281
f 296 	281 	298
f 261 	269 	118
f 257 	253 	184
f 253 	247 	184
f 318 	316 	321
f 318 	321 	322
f 197 	233 	315
f 320 	95 	90
f 320 	90 	319
f 298 	315 	276
f 277 	276 	315
f 364 	317 	93
f 233 	105 	315
f 323 	100 	95
f 323 	95 	320
f 317 	364 	313
f 146 	326 	325
f 274 	268 	321
f 322 	321 	268
f 162 	324 	270
f 100 	323 	32
f 146 	152 	326
f 310 	309 	330
f 329 	330 	309
f 324 	200 	272
f 334 	335 	330
f 334 	330 	329
f 162 	200 	324
f 336 	125 	122
f 336 	122 	333
f 337 	220 	331
f 210 	332 	221
f 338 	335 	334
f 338 	334 	340
f 341 	220 	337
f 339 	129 	125
f 339 	125 	336
f 162 	270 	232
f 346 	129 	339
f 187 	272 	200
f 338 	340 	344
f 343 	344 	340
f 225 	220 	341
f 345 	221 	342
f 160 	325 	326
f 326 	196 	160
f 129 	346 	139
f 347 	348 	344
f 347 	344 	343
f 273 	281 	134
f 62 	134 	281
f 221 	332 	342
f 349 	142 	139
f 349 	139 	346
f 347 	318 	348
f 331 	220 	327
f 350 	221 	345
f 214 	191 	220
f 351 	148 	142
f 351 	142 	349
f 445 	213 	357
f 350 	352 	221
f 328 	430 	326
f 70 	195 	138
f 219 	446 	360
f 353 	151 	148
f 353 	148 	351
f 156 	364 	352
f 355 	154 	151
f 355 	151 	353
f 359 	363 	72
f 358 	158 	154
f 358 	154 	355
f 306 	364 	156
f 306 	308 	364
f 221 	352 	364
f 445 	31 	38
f 362 	164 	158
f 362 	158 	358
f 185 	138 	195
f 361 	430 	425
f 212 	72 	363
f 201 	212 	363
f 362 	307 	164
f 68 	164 	307
f 413 	206 	143
f 156 	236 	241
f 156 	241 	306
f 430 	365 	196
f 366 	196 	365
f 367 	333 	192
f 122 	192 	333
f 368 	369 	143
f 368 	143 	206
f 273 	323 	320
f 273 	320 	319
f 273 	319 	314
f 312 	275 	314
f 307 	275 	312
f 197 	287 	101
f 279 	101 	287
f 245 	308 	306
f 245 	306 	241
f 372 	373 	369
f 372 	369 	368
f 101 	279 	277
f 105 	101 	277
f 378 	198 	194
f 378 	194 	371
f 251 	311 	308
f 251 	308 	245
f 376 	377 	373
f 376 	373 	372
f 255 	313 	311
f 255 	311 	251
f 379 	204 	198
f 379 	198 	378
f 380 	381 	377
f 380 	377 	376
f 327 	220 	191
f 261 	317 	313
f 261 	313 	255
f 204 	379 	367
f 204 	367 	192
f 382 	381 	380
f 382 	380 	69
f 243 	327 	191
f 243 	191 	190
f 383 	211 	399
f 317 	261 	93
f 119 	273 	123
f 128 	123 	273
f 134 	128 	273
f 384 	385 	382
f 384 	382 	69
f 383 	371 	211
f 194 	211 	371
f 247 	331 	327
f 247 	327 	243
f 292 	332 	210
f 292 	210 	208
f 361 	365 	430
f 196 	366 	370
f 196 	370 	374
f 196 	374 	375
f 196 	375 	174
f 273 	119 	115
f 323 	273 	115
f 253 	337 	331
f 253 	331 	247
f 346 	275 	349
f 222 	50 	388
f 386 	387 	385
f 386 	385 	384
f 332 	292 	342
f 294 	342 	292
f 185 	14 	138
f 349 	275 	351
f 257 	341 	337
f 257 	337 	253
f 222 	388 	390
f 222 	390 	230
f 391 	392 	387
f 391 	387 	386
f 395 	361 	389
f 297 	345 	342
f 297 	342 	294
f 393 	234 	230
f 393 	230 	390
f 394 	240 	234
f 394 	234 	393
f 341 	257 	263
f 341 	263 	225
f 353 	275 	355
f 302 	350 	345
f 302 	345 	297
f 395 	365 	361
f 396 	397 	392
f 396 	392 	391
f 398 	246 	240
f 398 	240 	394
f 399 	252 	246
f 399 	246 	398
f 273 	314 	275
f 303 	352 	350
f 303 	350 	302
f 283 	354 	285
f 400 	366 	365
f 400 	365 	395
f 211 	252 	399
f 66 	401 	397
f 66 	397 	396
f 23 	267 	85
f 23 	85 	20
f 289 	356 	354
f 289 	354 	283
f 236 	156 	352
f 236 	352 	303
f 402 	370 	366
f 402 	366 	400
f 26 	278 	267
f 26 	267 	23
f 362 	275 	307
f 33 	284 	278
f 33 	278 	26
f 295 	359 	356
f 295 	356 	289
f 145 	325 	226
f 403 	374 	370
f 403 	370 	402
f 42 	291 	284
f 42 	284 	33
f 50 	293 	291
f 50 	291 	42
f 404 	405 	406
f 404 	406 	55
f 299 	363 	359
f 299 	359 	295
f 50 	222 	293
f 358 	275 	362
f 358 	355 	275
f 353 	351 	275
f 346 	339 	275
f 339 	336 	275
f 333 	275 	336
f 408 	409 	405
f 408 	405 	404
f 407 	375 	374
f 407 	374 	403
f 363 	299 	203
f 363 	203 	201
f 367 	188 	333
f 275 	333 	188
f 93 	108 	364
f 108 	152 	364
f 447 	218 	223
f 217 	223 	218
f 410 	411 	409
f 410 	409 	408
f 375 	407 	177
f 375 	177 	174
f 389 	187 	395
f 223 	217 	214
f 400 	395 	200
f 412 	413 	411
f 412 	411 	410
f 196 	326 	430
f 145 	226 	146
f 226 	221 	146
f 357 	212 	224
f 221 	364 	146
f 152 	146 	364
f 228 	218 	447
f 206 	413 	412
f 200 	177 	407
f 172 	171 	224
f 379 	378 	188
f 416 	430 	415
f 414 	415 	430
f 401 	66 	417
f 30 	417 	66
f 228 	176 	175
f 418 	163 	159
f 418 	159 	215
f 367 	379 	188
f 419 	430 	416
f 29 	420 	417
f 29 	417 	30
f 403 	402 	200
f 402 	400 	200
f 187 	200 	395
f 407 	403 	200
f 421 	430 	419
f 124 	239 	116
f 36 	423 	420
f 36 	420 	29
f 263 	184 	48
f 113 	116 	239
f 61 	187 	422
f 425 	430 	421
f 378 	371 	188
f 371 	383 	188
f 49 	427 	423
f 49 	423 	36
f 239 	310 	113
f 411 	413 	310
f 426 	424 	187
f 55 	406 	427
f 55 	427 	49
f 428 	426 	187
f 428 	187 	429
f 429 	187 	389
f 163 	249 	153
f 50 	42 	188
f 67 	76 	431
f 187 	173 	269
f 54 	269 	173
f 390 	388 	188
f 388 	50 	188
f 83 	432 	431
f 83 	431 	76
f 173 	187 	25
f 422 	415 	414
f 422 	414 	61
f 301 	435 	260
f 147 	432 	83
f 147 	83 	88
f 424 	416 	415
f 424 	415 	422
f 104 	170 	285
f 92 	433 	147
f 92 	147 	88
f 426 	419 	416
f 426 	416 	424
f 99 	434 	433
f 99 	433 	92
f 399 	398 	188
f 394 	188 	398
f 428 	421 	419
f 428 	419 	426
f 99 	86 	434
f 399 	188 	383
f 249 	163 	290
f 282 	290 	163
f 429 	425 	421
f 429 	421 	428
f 110 	435 	140
f 59 	140 	435
f 104 	94 	170
f 425 	429 	389
f 425 	389 	361
f 435 	110 	114
f 435 	114 	155
f 229 	46 	305
f 155 	114 	34
f 117 	34 	114
f 178 	15 	182
f 215 	184 	418
f 184 	182 	418
f 34 	117 	67
f 150 	67 	117
f 48 	184 	215
f 170 	16 	171
f 94 	16 	170
f 9 	171 	16
f 131 	46 	44
f 131 	44 	133
f 176 	10 	178
f 10 	12 	178
f 418 	182 	15
f 137 	56 	46
f 137 	46 	131
f 4 	322 	163
f 140 	59 	56
f 140 	56 	137
f 418 	15 	1
f 163 	418 	1
f 438 	437 	436
f 437 	328 	436
f 414 	430 	437
f 328 	437 	430
f 356 	359 	72
f 76 	67 	150
f 152 	436 	328
f 161 	86 	99
f 166 	89 	86
f 166 	86 	161
f 439 	52 	440
f 173 	440 	54
f 97 	89 	166
f 97 	166 	168
f 436 	439 	440
f 436 	440 	438
f 256 	72 	254
f 258 	72 	256
f 258 	262 	72
f 286 	72 	264
f 354 	356 	72
f 286 	354 	72
f 72 	220 	254
f 25 	441 	440
f 25 	440 	173
f 180 	103 	97
f 180 	97 	168
f 24 	442 	441
f 24 	441 	25
f 183 	109 	103
f 183 	103 	180
f 47 	225 	263
f 47 	263 	48
f 24 	443 	442
f 189 	113 	109
f 189 	109 	183
f 53 	231 	225
f 53 	225 	47
f 57 	443 	24
f 65 	237 	231
f 65 	231 	53
f 193 	116 	113
f 193 	113 	189
f 61 	444 	443
f 61 	443 	57
f 133 	44 	116
f 133 	116 	193
f 237 	65 	250
f 73 	250 	65
f 61 	414 	444
f 437 	444 	414
f 38 	360 	446
f 77 	254 	250
f 77 	250 	73
f 38 	446 	445
f 442 	438 	441
f 443 	438 	442
f 440 	441 	438
f 81 	258 	256
f 81 	256 	82
f 213 	445 	446
f 213 	446 	219
f 87 	262 	258
f 87 	258 	81
f 214 	220 	223
f 437 	438 	444
f 443 	444 	438
f 91 	264 	262
f 91 	262 	87
f 72 	212 	357
f 91 	286 	264
f 325 	145 	146
f 360 	228 	447
f 96 	286 	91
f 328 	326 	152
f 445 	357 	31
f 357 	171 	31
f 224 	171 	357
f 9 	31 	171
f 160 	226 	325
f 104 	285 	96
f 286 	96 	285
f 286 	285 	354
f 10 	176 	38
f 176 	360 	38
f 228 	360 	176
f 77 	82 	254
f 256 	254 	82
f 324 	272 	270
f 271 	270 	272
f 448 	436 	152
f 300 	137 	304
f 152 	108 	448
f 202 	133 	238
f 193 	189 	309
f 439 	436 	449
f 448 	449 	436
f 439 	449 	52
f 54 	440 	52
f 216 	220 	259
f 64 	52 	449
f 64 	449 	448
f 120 	118 	35
f 37 	35 	118
f 274 	321 	213
f 265 	213 	280
f 288 	280 	213
f 213 	248 	288
f 193 	309 	238
f 330 	411 	310
f 335 	409 	330
f 213 	321 	357
f 318 	322 	4
f 268 	163 	322
f 266 	163 	268
f 266 	282 	163
f 1 	4 	163
f 309 	410 	329
f 411 	330 	409
f 113 	310 	413
f 338 	405 	335
f 344 	348 	4
f 338 	344 	4
f 348 	318 	4
f 265 	274 	213
f 316 	357 	321
f 360 	447 	219
f 223 	219 	447
f 98 	89 	381
f 357 	316 	347
f 357 	347 	343
f 357 	343 	340
f 329 	408 	334
f 334 	404 	340
f 408 	404 	334
f 7 	98 	401
f 401 	417 	7
f 206 	180 	368
f 372 	168 	376
f 168 	166 	376
f 69 	380 	72
f 384 	72 	386
f 386 	72 	391
f 391 	72 	396
f 4 	8 	406
f 357 	340 	55
f 427 	406 	8
f 4 	406 	405
f 409 	335 	405
f 97 	103 	369
f 4 	405 	338
f 408 	329 	410
f 55 	340 	404
f 392 	397 	98
f 417 	420 	7
f 420 	423 	7
f 8 	7 	427
f 423 	427 	7
f 189 	412 	309
f 98 	382 	385
f 387 	98 	385
f 392 	98 	387
f 397 	401 	98
f 431 	159 	67
f 432 	147 	159
f 147 	433 	159
f 432 	159 	431
f 434 	98 	433
f 98 	159 	433
f 86 	98 	434
f 86 	89 	98
f 59 	435 	301
f 155 	159 	435
f 67 	159 	34
# 902 faces

 #end of obj_0

